Intro to Data Science Final Project
…
## Recipe (baseline model)
recipe_baseline <- 
  recipe(remittances_gdp ~ stock + gdp_per + gdp_lag + unemployment + 
         dist_cap + terror + deportations + deportations_lag + 
         internet + inflation,
  data = remit_train) |>
step_impute_median(all_numeric_predictors()) |>
step_impute_mode(all_nominal_predictors()) |>
step_mutate(gdp_per = log(gdp_per + 1)) |>
step_normalize(all_numeric_predictors())

## Processing the full training data using parameter specification. 
bake(prep(recipe_baseline, training = remit_train), new_data = remit_train)

# A tibble: 3,292 × 11
     stock gdp_per gdp_lag unemployment dist_cap terror deportations
     <dbl>   <dbl>   <dbl>        <dbl>    <dbl>  <dbl>        <dbl>
 1 -0.163   1.00    -0.414        1.59    -0.473 -1.20        -0.155
 2 -0.163  -1.31    -0.615       -0.517    1.13  -0.288       -0.161
 3 -0.0870 -0.0360  -0.409        0.756    0.240  0.627       -0.145
 4 -0.163   1.67     2.28        -0.471   -2.18  -0.288       -0.142
 5  0.145   0.0499  -0.443        0.373   -0.226  0.627       -0.150
 6 -0.163  -0.177   -0.475        0.388   -0.465 -0.288       -0.155
 7 -0.163   0.112   -0.378        0.652   -0.112 -0.288       -0.155
 8 -0.0916 -0.559   -0.537       -0.968    1.51  -0.288       -0.142
 9 -0.163   1.37     1.22         1.14     1.41  -0.288       -0.161
10 -0.241   0.346   -0.250       -0.488    0.283  0.627       -0.158
# ℹ 3,282 more rows
# ℹ 4 more variables: deportations_lag <dbl>, internet <dbl>, inflation <dbl>,
#   remittances_gdp <dbl>
…
## Given the high degree of missingness a recipe that accounts for nas will avoid it from breaking down using median imputation. 
recipe_alt <- 
  recipe(remittances_gdp ~ stock + gdp_per + gdp_lag + unemployment + 
         dist_cap + terror + deportations + deportations_lag + 
         internet + inflation + country_name,
  data = remit_train_clean) |>
update_role(country_name, new_role = "id") |>
step_impute_median(all_numeric_predictors()) |>
step_mutate(gdp_per = log(gdp_per + 1)) |>
step_normalize(all_numeric_predictors())

bake(prep(recipe_alt, training = remit_train_clean), new_data = remit_train_clean)

# A tibble: 3,292 × 12
     stock gdp_per gdp_lag unemployment dist_cap terror deportations
     <dbl>   <dbl>   <dbl>        <dbl>    <dbl>  <dbl>        <dbl>
 1 -0.163   1.00    -0.414        1.59    -0.473 -1.20        -0.155
 2 -0.163  -1.31    -0.615       -0.517    1.13  -0.288       -0.161
 3 -0.0870 -0.0360  -0.409        0.756    0.240  0.627       -0.145
 4 -0.163   1.67     2.28        -0.471   -2.18  -0.288       -0.142
 5  0.145   0.0499  -0.443        0.373   -0.226  0.627       -0.150
 6 -0.163  -0.177   -0.475        0.388   -0.465 -0.288       -0.155
 7 -0.163   0.112   -0.378        0.652   -0.112 -0.288       -0.155
 8 -0.0916 -0.559   -0.537       -0.968    1.51  -0.288       -0.142
 9 -0.163   1.37     1.22         1.14     1.41  -0.288       -0.161
10 -0.241   0.346   -0.250       -0.488    0.283  0.627       -0.158
# ℹ 3,282 more rows
# ℹ 5 more variables: deportations_lag <dbl>, internet <dbl>, inflation <dbl>,
#   country_name <chr>, remittances_gdp <dbl>
…
## Tuning it within cross validation using our hyperparamters.
rf_tuned <- rf_wf |>
  tune_grid(
    resamples = rf_folds,
    grid = rf_grid,
    control = control_grid(save_pred = TRUE))

## Measuring the RMSE 
rf_tuned |>
  collect_metrics()

# A tibble: 40 × 9
    mtry trees min_n .metric .estimator  mean     n std_err .config             
   <int> <int> <int> <chr>   <chr>      <dbl> <int>   <dbl> <chr>               
 1    19  1868    19 rmse    standard   3.77      5  0.537  Preprocessor1_Model…
 2    19  1868    19 rsq     standard   0.718     5  0.0420 Preprocessor1_Model…
 3    16  1054     3 rmse    standard   3.41      5  0.545  Preprocessor1_Model…
 4    16  1054     3 rsq     standard   0.772     5  0.0437 Preprocessor1_Model…
 5     8  1913    23 rmse    standard   3.87      5  0.546  Preprocessor1_Model…
 6     8  1913    23 rsq     standard   0.704     5  0.0411 Preprocessor1_Model…
 7    14  1724     3 rmse    standard   3.41      5  0.540  Preprocessor1_Model…
 8    14  1724     3 rsq     standard   0.772     5  0.0428 Preprocessor1_Model…
 9    15  1797    30 rmse    standard   4.04      5  0.527  Preprocessor1_Model…
10    15  1797    30 rsq     standard   0.671     5  0.0371 Preprocessor1_Model…
# ℹ 30 more rows
…
